

================================================================
== Vivado HLS Report for 'fir'
================================================================
* Date:           Mon Dec 11 11:36:29 2023

* Version:        2016.4 (Build 1756540 on Mon Jan 23 19:31:01 MST 2017)
* Project:        fir_prj
* Solution:       solution2
* Product family: kintex7
* Target device:  xc7k160tfbg484-2


================================================================
== Performance Estimates
================================================================
+ Timing (ns): 
    * Summary: 
    +--------+-------+----------+------------+
    |  Clock | Target| Estimated| Uncertainty|
    +--------+-------+----------+------------+
    |ap_clk  |  10.00|      8.43|        1.25|
    +--------+-------+----------+------------+

+ Latency (clock cycles): 
    * Summary: 
    +-----+-----+-----+-----+---------+
    |  Latency  |  Interval | Pipeline|
    | min | max | min | max |   Type  |
    +-----+-----+-----+-----+---------+
    |   78|   78|   79|   79|   none  |
    +-----+-----+-----+-----+---------+

    + Detail: 
        * Instance: 
        N/A

        * Loop: 
        +--------------------+-----+-----+----------+-----------+-----------+------+----------+
        |                    |  Latency  | Iteration|  Initiation Interval  | Trip |          |
        |      Loop Name     | min | max |  Latency |  achieved |   target  | Count| Pipelined|
        +--------------------+-----+-----+----------+-----------+-----------+------+----------+
        |- Shift_Accum_Loop  |   77|   77|         7|          -|          -|    11|    no    |
        +--------------------+-----+-----+----------+-----------+-----------+------+----------+



================================================================
== Utilization Estimates
================================================================
* Summary: 
+-----------------+---------+-------+--------+--------+
|       Name      | BRAM_18K| DSP48E|   FF   |   LUT  |
+-----------------+---------+-------+--------+--------+
|DSP              |        -|      -|       -|       -|
|Expression       |        -|      -|       0|      39|
|FIFO             |        -|      -|       -|       -|
|Instance         |        -|      4|       0|       0|
|Memory           |        0|      -|      64|       6|
|Multiplexer      |        -|      -|       -|     149|
|Register         |        -|      -|     212|       -|
+-----------------+---------+-------+--------+--------+
|Total            |        0|      4|     276|     194|
+-----------------+---------+-------+--------+--------+
|Available        |      650|    600|  202800|  101400|
+-----------------+---------+-------+--------+--------+
|Utilization (%)  |        0|   ~0  |   ~0   |   ~0   |
+-----------------+---------+-------+--------+--------+

+ Detail: 
    * Instance: 
    +-------------------------+----------------------+---------+-------+---+----+
    |         Instance        |        Module        | BRAM_18K| DSP48E| FF| LUT|
    +-------------------------+----------------------+---------+-------+---+----+
    |fir_mul_32s_32s_3bkb_U1  |fir_mul_32s_32s_3bkb  |        0|      4|  0|   0|
    +-------------------------+----------------------+---------+-------+---+----+
    |Total                    |                      |        0|      4|  0|   0|
    +-------------------------+----------------------+---------+-------+---+----+

    * DSP48: 
    N/A

    * Memory: 
    +-------------+---------------+---------+----+----+------+-----+------+-------------+
    |    Memory   |     Module    | BRAM_18K| FF | LUT| Words| Bits| Banks| W*Bits*Banks|
    +-------------+---------------+---------+----+----+------+-----+------+-------------+
    |shift_reg_U  |fir_shift_reg  |        0|  64|   6|    11|   32|     1|          352|
    +-------------+---------------+---------+----+----+------+-----+------+-------------+
    |Total        |               |        0|  64|   6|    11|   32|     1|          352|
    +-------------+---------------+---------+----+----+------+-----+------+-------------+

    * FIFO: 
    N/A

    * Expression: 
    +-----------------+----------+-------+---+----+------------+------------+
    |  Variable Name  | Operation| DSP48E| FF| LUT| Bitwidth P0| Bitwidth P1|
    +-----------------+----------+-------+---+----+------------+------------+
    |acc_1_fu_179_p2  |     +    |      0|  0|  32|          32|          32|
    |grp_fu_136_p2    |     +    |      0|  0|   5|           5|           2|
    |tmp_1_fu_155_p2  |   icmp   |      0|  0|   2|           5|           1|
    +-----------------+----------+-------+---+----+------------+------------+
    |Total            |          |      0|  0|  39|          42|          35|
    +-----------------+----------+-------+---+----+------------+------------+

    * Multiplexer: 
    +--------------------+----+-----------+-----+-----------+
    |        Name        | LUT| Input Size| Bits| Total Bits|
    +--------------------+----+-----------+-----+-----------+
    |acc_reg_101         |  32|          2|   32|         64|
    |ap_NS_fsm           |   4|          9|    1|          9|
    |data1_reg_126       |  32|          2|   32|         64|
    |grp_fu_136_p0       |   5|          3|    5|         15|
    |i_reg_114           |   5|          2|    5|         10|
    |shift_reg_address0  |   4|          4|    4|         16|
    |shift_reg_d0        |  32|          3|   32|         96|
    |x_ap_vld_in_sig     |   1|          2|    1|          2|
    |x_ap_vld_preg       |   1|          2|    1|          2|
    |x_blk_n             |   1|          2|    1|          2|
    |x_in_sig            |  32|          2|   32|         64|
    +--------------------+----+-----------+-----+-----------+
    |Total               | 149|         33|  146|        344|
    +--------------------+----+-----------+-----+-----------+

    * Register: 
    +----------------+----+----+-----+-----------+
    |      Name      | FF | LUT| Bits| Const Bits|
    +----------------+----+----+-----+-----------+
    |acc_reg_101     |  32|   0|   32|          0|
    |ap_CS_fsm       |   8|   0|    8|          0|
    |c_load_reg_223  |  32|   0|   32|          0|
    |data1_reg_126   |  32|   0|   32|          0|
    |i_1_reg_218     |   5|   0|    5|          0|
    |i_cast_reg_190  |  32|   0|   32|          0|
    |i_reg_114       |   5|   0|    5|          0|
    |tmp_1_reg_199   |   1|   0|    1|          0|
    |tmp_6_reg_228   |  32|   0|   32|          0|
    |x_ap_vld_preg   |   1|   0|    1|          0|
    |x_preg          |  32|   0|   32|          0|
    +----------------+----+----+-----+-----------+
    |Total           | 212|   0|  212|          0|
    +----------------+----+----+-----+-----------+



================================================================
== Interface
================================================================
* Summary: 
+------------+-----+-----+------------+--------------+--------------+
|  RTL Ports | Dir | Bits|  Protocol  | Source Object|    C Type    |
+------------+-----+-----+------------+--------------+--------------+
|ap_clk      |  in |    1| ap_ctrl_hs |      fir     | return value |
|ap_rst      |  in |    1| ap_ctrl_hs |      fir     | return value |
|ap_start    |  in |    1| ap_ctrl_hs |      fir     | return value |
|ap_done     | out |    1| ap_ctrl_hs |      fir     | return value |
|ap_idle     | out |    1| ap_ctrl_hs |      fir     | return value |
|ap_ready    | out |    1| ap_ctrl_hs |      fir     | return value |
|y           | out |   32|   ap_vld   |       y      |    pointer   |
|y_ap_vld    | out |    1|   ap_vld   |       y      |    pointer   |
|c_address0  | out |    4|  ap_memory |       c      |     array    |
|c_ce0       | out |    1|  ap_memory |       c      |     array    |
|c_q0        |  in |   32|  ap_memory |       c      |     array    |
|x           |  in |   32|   ap_vld   |       x      |    scalar    |
|x_ap_vld    |  in |    1|   ap_vld   |       x      |    scalar    |
+------------+-----+-----+------------+--------------+--------------+

============================================================
+ Verbose Summary: Synthesis Manager
============================================================
InlineROM: 1
ExposeGlobal: 0
============================================================
+ Verbose Summary: CDFG Model
============================================================
IsTopModel: 1
ResetActiveHigh: 1
IsCombinational: 2
IsDatapathOnly: 2
HasWiredReturn: 1
HasMFsm: 0
HasVarLatency: 1
IsPipeline: 0
IsRtlPipelined: 0
IsInstanceOverlapped: 0
IsDontTouch: 0
HasImplIP: 0
IsGatedGlobalClock: 0


============================================================
+ Verbose Summary: Schedule
============================================================
* Number of FSM states: 8
* Pipeline: 0
* Dataflow Pipeline: 0

* FSM state transitions: 
1 --> 
	2  / true
2 --> 
	3  / (!tmp)
3 --> 
	4  / true
4 --> 
	5  / true
5 --> 
	6  / true
6 --> 
	7  / true
7 --> 
	8  / true
8 --> 
	2  / true
* FSM state operations: 

 <State 1>: 0.89ns
ST_1: StgValue_9 (5)  [1/1] 0.00ns
:0  call void (...)* @_ssdm_op_SpecBitsMap(i32* %y) nounwind, !map !7

ST_1: StgValue_10 (6)  [1/1] 0.00ns
:1  call void (...)* @_ssdm_op_SpecBitsMap([11 x i32]* %c) nounwind, !map !13

ST_1: StgValue_11 (7)  [1/1] 0.00ns
:2  call void (...)* @_ssdm_op_SpecBitsMap(i32 %x) nounwind, !map !19

ST_1: StgValue_12 (8)  [1/1] 0.00ns
:3  call void (...)* @_ssdm_op_SpecTopModule([4 x i8]* @fir_str) nounwind

ST_1: x_read (9)  [1/1] 0.00ns
:4  %x_read = call i32 @_ssdm_op_Read.ap_vld.i32(i32 %x) nounwind

ST_1: StgValue_14 (10)  [1/1] 0.00ns  loc: fir.c:53
:5  call void (...)* @_ssdm_op_SpecInterface(i32* %y, [7 x i8]* @p_str, i32 0, i32 0, [1 x i8]* @p_str1, i32 0, i32 0, [1 x i8]* @p_str1, [1 x i8]* @p_str1, [1 x i8]* @p_str1, i32 0, i32 0, i32 0, i32 0, [1 x i8]* @p_str1, [1 x i8]* @p_str1) nounwind

ST_1: StgValue_15 (11)  [1/1] 0.00ns  loc: fir.c:54
:6  call void (...)* @_ssdm_op_SpecInterface(i32 %x, [7 x i8]* @p_str, i32 0, i32 0, [1 x i8]* @p_str1, i32 0, i32 0, [1 x i8]* @p_str1, [1 x i8]* @p_str1, [1 x i8]* @p_str1, i32 0, i32 0, i32 0, i32 0, [1 x i8]* @p_str1, [1 x i8]* @p_str1) nounwind

ST_1: StgValue_16 (12)  [1/1] 0.00ns
:7  call void (...)* @_ssdm_op_SpecMemCore([11 x i32]* %c, [1 x i8]* @p_str1, [12 x i8]* @p_str2, [1 x i8]* @p_str1, i32 -1, [1 x i8]* @p_str1, [1 x i8]* @p_str1, [1 x i8]* @p_str1, [1 x i8]* @p_str1, [1 x i8]* @p_str1) nounwind

ST_1: StgValue_17 (13)  [1/1] 0.89ns  loc: fir.c:63
:8  br label %1


 <State 2>: 3.63ns
ST_2: acc (15)  [1/1] 0.00ns
:0  %acc = phi i32 [ 0, %0 ], [ %acc_1, %5 ]

ST_2: i (16)  [1/1] 0.00ns
:1  %i = phi i5 [ 10, %0 ], [ %i_1, %5 ]

ST_2: i_cast (17)  [1/1] 0.00ns  loc: fir.c:63
:2  %i_cast = sext i5 %i to i32

ST_2: tmp (18)  [1/1] 0.00ns  loc: fir.c:63
:3  %tmp = call i1 @_ssdm_op_BitSelect.i1.i5.i32(i5 %i, i32 4)

ST_2: empty (19)  [1/1] 0.00ns
:4  %empty = call i32 (...)* @_ssdm_op_SpecLoopTripCount(i64 11, i64 11, i64 11) nounwind

ST_2: StgValue_23 (20)  [1/1] 0.00ns  loc: fir.c:63
:5  br i1 %tmp, label %6, label %2

ST_2: StgValue_24 (22)  [1/1] 0.00ns  loc: fir.c:63
:0  call void (...)* @_ssdm_op_SpecLoopName([17 x i8]* @p_str3) nounwind

ST_2: tmp_1 (23)  [1/1] 1.17ns  loc: fir.c:64
:1  %tmp_1 = icmp eq i5 %i, 0

ST_2: StgValue_26 (24)  [1/1] 0.00ns  loc: fir.c:64
:2  br i1 %tmp_1, label %3, label %4

ST_2: tmp_2 (26)  [1/1] 1.24ns  loc: fir.c:68
:0  %tmp_2 = add i5 %i, -1

ST_2: tmp_3 (27)  [1/1] 0.00ns  loc: fir.c:68
:1  %tmp_3 = zext i5 %tmp_2 to i64

ST_2: shift_reg_addr (28)  [1/1] 0.00ns  loc: fir.c:68
:2  %shift_reg_addr = getelementptr inbounds [11 x i32]* @shift_reg, i64 0, i64 %tmp_3

ST_2: data (29)  [2/2] 2.39ns  loc: fir.c:68
:3  %data = load i32* %shift_reg_addr, align 4

ST_2: StgValue_31 (35)  [1/1] 2.39ns  loc: fir.c:65
:0  store i32 %x_read, i32* getelementptr inbounds ([11 x i32]* @shift_reg, i64 0, i64 0), align 16

ST_2: StgValue_32 (36)  [1/1] 0.89ns  loc: fir.c:67
:1  br label %5

ST_2: StgValue_33 (47)  [1/1] 0.00ns  loc: fir.c:73
:0  call void @_ssdm_op_Write.ap_vld.i32P(i32* %y, i32 %acc) nounwind

ST_2: StgValue_34 (48)  [1/1] 0.00ns  loc: fir.c:74
:1  ret void


 <State 3>: 4.78ns
ST_3: data (29)  [1/2] 2.39ns  loc: fir.c:68
:3  %data = load i32* %shift_reg_addr, align 4

ST_3: tmp_4 (30)  [1/1] 0.00ns  loc: fir.c:68
:4  %tmp_4 = zext i32 %i_cast to i64

ST_3: shift_reg_addr_1 (31)  [1/1] 0.00ns  loc: fir.c:68
:5  %shift_reg_addr_1 = getelementptr inbounds [11 x i32]* @shift_reg, i64 0, i64 %tmp_4

ST_3: StgValue_38 (32)  [1/1] 2.39ns  loc: fir.c:68
:6  store i32 %data, i32* %shift_reg_addr_1, align 4

ST_3: StgValue_39 (33)  [1/1] 0.89ns
:7  br label %5

ST_3: tmp_5 (39)  [1/1] 0.00ns  loc: fir.c:71
:1  %tmp_5 = zext i32 %i_cast to i64

ST_3: c_addr (40)  [1/1] 0.00ns  loc: fir.c:71
:2  %c_addr = getelementptr [11 x i32]* %c, i64 0, i64 %tmp_5

ST_3: c_load (41)  [2/2] 2.39ns  loc: fir.c:71
:3  %c_load = load i32* %c_addr, align 4

ST_3: i_1 (44)  [1/1] 1.24ns  loc: fir.c:63
:6  %i_1 = add i5 %i, -1


 <State 4>: 2.39ns
ST_4: data1 (38)  [1/1] 0.00ns
:0  %data1 = phi i32 [ %x_read, %3 ], [ %data, %4 ]

ST_4: c_load (41)  [1/2] 2.39ns  loc: fir.c:71
:3  %c_load = load i32* %c_addr, align 4


 <State 5>: 8.43ns
ST_5: tmp_6 (42)  [3/3] 8.43ns  loc: fir.c:71
:4  %tmp_6 = mul nsw i32 %c_load, %data1


 <State 6>: 8.43ns
ST_6: tmp_6 (42)  [2/3] 8.43ns  loc: fir.c:71
:4  %tmp_6 = mul nsw i32 %c_load, %data1


 <State 7>: 8.43ns
ST_7: tmp_6 (42)  [1/3] 8.43ns  loc: fir.c:71
:4  %tmp_6 = mul nsw i32 %c_load, %data1


 <State 8>: 1.60ns
ST_8: acc_1 (43)  [1/1] 1.60ns  loc: fir.c:71
:5  %acc_1 = add nsw i32 %tmp_6, %acc

ST_8: StgValue_50 (45)  [1/1] 0.00ns  loc: fir.c:63
:7  br label %1



============================================================
+ Verbose Summary: Binding
============================================================
STG Binding: 
---------------- STG Properties BEGIN ----------------
- Is combinational: 0
- Is one-state seq: 0
- Is datapath-only: 0
- Is clock enabled: 0
- Is pipelined: 0
- Is top level: 1
Port [ Return ] is wired: 1; IO mode=ap_ctrl_hs:ce=0
Port [ y]:  wired=1; compound=0; hidden=0; nouse=0; global=0; static=0; extern=0; dir=1; type=0; pingpong=0; private_global=0; IO mode=ap_vld:ce=0
Port [ c]:  wired=1; compound=1; hidden=0; nouse=0; global=0; static=0; extern=0; dir=0; type=1; pingpong=0; private_global=0; MemPort=[1]; IO mode=ap_memory:ce=0
Port [ x]:  wired=1; compound=0; hidden=0; nouse=0; global=0; static=0; extern=0; dir=0; type=0; pingpong=0; private_global=0; IO mode=ap_vld:ce=0
Port [ shift_reg]:  wired=0; compound=1; hidden=1; nouse=0; global=1; static=1; extern=0; dir=2; type=1; pingpong=0; private_global=1; linkage=7; visibility=0; MemPort=[23]; IO mode=ap_memory:ce=0
---------------- STG Properties END ------------------

---------------- Datapath Model BEGIN ----------------

<LifeTime>
<method=bitvector/>
StgValue_9       (specbitsmap      ) [ 000000000]
StgValue_10      (specbitsmap      ) [ 000000000]
StgValue_11      (specbitsmap      ) [ 000000000]
StgValue_12      (spectopmodule    ) [ 000000000]
x_read           (read             ) [ 001111111]
StgValue_14      (specinterface    ) [ 000000000]
StgValue_15      (specinterface    ) [ 000000000]
StgValue_16      (specmemcore      ) [ 000000000]
StgValue_17      (br               ) [ 011111111]
acc              (phi              ) [ 001111111]
i                (phi              ) [ 001100000]
i_cast           (sext             ) [ 000100000]
tmp              (bitselect        ) [ 001111111]
empty            (speclooptripcount) [ 000000000]
StgValue_23      (br               ) [ 000000000]
StgValue_24      (specloopname     ) [ 000000000]
tmp_1            (icmp             ) [ 001111111]
StgValue_26      (br               ) [ 000000000]
tmp_2            (add              ) [ 000000000]
tmp_3            (zext             ) [ 000000000]
shift_reg_addr   (getelementptr    ) [ 000100000]
StgValue_31      (store            ) [ 000000000]
StgValue_32      (br               ) [ 001111111]
StgValue_33      (write            ) [ 000000000]
StgValue_34      (ret              ) [ 000000000]
data             (load             ) [ 001111111]
tmp_4            (zext             ) [ 000000000]
shift_reg_addr_1 (getelementptr    ) [ 000000000]
StgValue_38      (store            ) [ 000000000]
StgValue_39      (br               ) [ 001111111]
tmp_5            (zext             ) [ 000000000]
c_addr           (getelementptr    ) [ 000010000]
i_1              (add              ) [ 011011111]
data1            (phi              ) [ 000011110]
c_load           (load             ) [ 000001110]
tmp_6            (mul              ) [ 000000001]
acc_1            (add              ) [ 011111111]
StgValue_50      (br               ) [ 011111111]
</LifeTime>

<model>

<comp_list>
<comp id="0" class="1000" name="y">
<pin_list>
<pin id="1" dir="1" index="0" bw="1" slack="0"/>
</pin_list>
<bind>
<StgValue><ssdm name="y"/></StgValue>
</bind>
</comp>

<comp id="2" class="1000" name="c">
<pin_list>
<pin id="3" dir="1" index="0" bw="1" slack="0"/>
</pin_list>
<bind>
<StgValue><ssdm name="c"/><MemPortTyVec>1 </MemPortTyVec>
</StgValue>
</bind>
</comp>

<comp id="4" class="1000" name="x">
<pin_list>
<pin id="5" dir="1" index="0" bw="1" slack="0"/>
</pin_list>
<bind>
<StgValue><ssdm name="x"/></StgValue>
</bind>
</comp>

<comp id="6" class="1000" name="shift_reg">
<pin_list>
<pin id="7" dir="1" index="0" bw="1" slack="0"/>
</pin_list>
<bind>
<StgValue><ssdm name="shift_reg"/><MemPortTyVec>2 3 </MemPortTyVec>
</StgValue>
</bind>
</comp>

<comp id="8" class="1001" name="const_8">
<pin_list>
<pin id="9" dir="1" index="0" bw="1" slack="2147483647"/>
</pin_list>
<bind>
<StgValue><ssdm name="_ssdm_op_SpecBitsMap"/></StgValue>
</bind>
</comp>

<comp id="10" class="1001" name="const_10">
<pin_list>
<pin id="11" dir="1" index="0" bw="1" slack="2147483647"/>
</pin_list>
<bind>
<StgValue><ssdm name="_ssdm_op_SpecTopModule"/></StgValue>
</bind>
</comp>

<comp id="12" class="1001" name="const_12">
<pin_list>
<pin id="13" dir="1" index="0" bw="1" slack="2147483647"/>
</pin_list>
<bind>
<StgValue><ssdm name="fir_str"/></StgValue>
</bind>
</comp>

<comp id="14" class="1001" name="const_14">
<pin_list>
<pin id="15" dir="1" index="0" bw="1" slack="0"/>
</pin_list>
<bind>
<StgValue><ssdm name="_ssdm_op_Read.ap_vld.i32"/></StgValue>
</bind>
</comp>

<comp id="16" class="1001" name="const_16">
<pin_list>
<pin id="17" dir="1" index="0" bw="1" slack="2147483647"/>
</pin_list>
<bind>
<StgValue><ssdm name="_ssdm_op_SpecInterface"/></StgValue>
</bind>
</comp>

<comp id="18" class="1001" name="const_18">
<pin_list>
<pin id="19" dir="1" index="0" bw="1" slack="2147483647"/>
</pin_list>
<bind>
<StgValue><ssdm name="p_str"/></StgValue>
</bind>
</comp>

<comp id="20" class="1001" name="const_20">
<pin_list>
<pin id="21" dir="1" index="0" bw="1" slack="1"/>
</pin_list>
<bind>
<StgValue><ssdm name=""/></StgValue>
</bind>
</comp>

<comp id="22" class="1001" name="const_22">
<pin_list>
<pin id="23" dir="1" index="0" bw="1" slack="2147483647"/>
</pin_list>
<bind>
<StgValue><ssdm name="p_str1"/></StgValue>
</bind>
</comp>

<comp id="24" class="1001" name="const_24">
<pin_list>
<pin id="25" dir="1" index="0" bw="1" slack="2147483647"/>
</pin_list>
<bind>
<StgValue><ssdm name="_ssdm_op_SpecMemCore"/></StgValue>
</bind>
</comp>

<comp id="26" class="1001" name="const_26">
<pin_list>
<pin id="27" dir="1" index="0" bw="1" slack="2147483647"/>
</pin_list>
<bind>
<StgValue><ssdm name="p_str2"/></StgValue>
</bind>
</comp>

<comp id="28" class="1001" name="const_28">
<pin_list>
<pin id="29" dir="1" index="0" bw="1" slack="2147483647"/>
</pin_list>
<bind>
<StgValue><ssdm name=""/></StgValue>
</bind>
</comp>

<comp id="30" class="1001" name="const_30">
<pin_list>
<pin id="31" dir="1" index="0" bw="1" slack="1"/>
</pin_list>
<bind>
<StgValue><ssdm name=""/></StgValue>
</bind>
</comp>

<comp id="32" class="1001" name="const_32">
<pin_list>
<pin id="33" dir="1" index="0" bw="1" slack="0"/>
</pin_list>
<bind>
<StgValue><ssdm name="_ssdm_op_BitSelect.i1.i5.i32"/></StgValue>
</bind>
</comp>

<comp id="34" class="1001" name="const_34">
<pin_list>
<pin id="35" dir="1" index="0" bw="1" slack="0"/>
</pin_list>
<bind>
<StgValue><ssdm name=""/></StgValue>
</bind>
</comp>

<comp id="36" class="1001" name="const_36">
<pin_list>
<pin id="37" dir="1" index="0" bw="1" slack="2147483647"/>
</pin_list>
<bind>
<StgValue><ssdm name="_ssdm_op_SpecLoopTripCount"/></StgValue>
</bind>
</comp>

<comp id="38" class="1001" name="const_38">
<pin_list>
<pin id="39" dir="1" index="0" bw="1" slack="2147483647"/>
</pin_list>
<bind>
<StgValue><ssdm name=""/></StgValue>
</bind>
</comp>

<comp id="40" class="1001" name="const_40">
<pin_list>
<pin id="41" dir="1" index="0" bw="1" slack="2147483647"/>
</pin_list>
<bind>
<StgValue><ssdm name="_ssdm_op_SpecLoopName"/></StgValue>
</bind>
</comp>

<comp id="42" class="1001" name="const_42">
<pin_list>
<pin id="43" dir="1" index="0" bw="1" slack="2147483647"/>
</pin_list>
<bind>
<StgValue><ssdm name="p_str3"/></StgValue>
</bind>
</comp>

<comp id="44" class="1001" name="const_44">
<pin_list>
<pin id="45" dir="1" index="0" bw="1" slack="0"/>
</pin_list>
<bind>
<StgValue><ssdm name=""/></StgValue>
</bind>
</comp>

<comp id="46" class="1001" name="const_46">
<pin_list>
<pin id="47" dir="1" index="0" bw="1" slack="0"/>
</pin_list>
<bind>
<StgValue><ssdm name=""/></StgValue>
</bind>
</comp>

<comp id="48" class="1001" name="const_48">
<pin_list>
<pin id="49" dir="1" index="0" bw="1" slack="0"/>
</pin_list>
<bind>
<StgValue><ssdm name=""/></StgValue>
</bind>
</comp>

<comp id="50" class="1001" name="const_50">
<pin_list>
<pin id="51" dir="1" index="0" bw="1" slack="0"/>
</pin_list>
<bind>
<StgValue><ssdm name=""/></StgValue>
</bind>
</comp>

<comp id="52" class="1001" name="const_52">
<pin_list>
<pin id="53" dir="1" index="0" bw="1" slack="0"/>
</pin_list>
<bind>
<StgValue><ssdm name="_ssdm_op_Write.ap_vld.i32P"/></StgValue>
</bind>
</comp>

<comp id="54" class="1004" name="x_read_read_fu_54">
<pin_list>
<pin id="55" dir="0" index="0" bw="32" slack="0"/>
<pin id="56" dir="0" index="1" bw="32" slack="0"/>
<pin id="57" dir="1" index="2" bw="32" slack="1"/>
</pin_list>
<bind>
<opcode="read(1150) " fcode="read"/>
<opset="x_read/1 "/>
</bind>
</comp>

<comp id="60" class="1004" name="StgValue_33_write_fu_60">
<pin_list>
<pin id="61" dir="0" index="0" bw="0" slack="0"/>
<pin id="62" dir="0" index="1" bw="32" slack="0"/>
<pin id="63" dir="0" index="2" bw="32" slack="0"/>
<pin id="64" dir="1" index="3" bw="0" slack="2147483647"/>
</pin_list>
<bind>
<opcode="write(1151) " fcode="write"/>
<opset="StgValue_33/2 "/>
</bind>
</comp>

<comp id="67" class="1004" name="shift_reg_addr_gep_fu_67">
<pin_list>
<pin id="68" dir="0" index="0" bw="32" slack="0"/>
<pin id="69" dir="0" index="1" bw="1" slack="0"/>
<pin id="70" dir="0" index="2" bw="5" slack="0"/>
<pin id="71" dir="1" index="3" bw="4" slack="0"/>
</pin_list>
<bind>
<opcode="getelementptr(29) " fcode="getelementptr"/>
<opset="shift_reg_addr/2 "/>
</bind>
</comp>

<comp id="74" class="1004" name="grp_access_fu_74">
<pin_list>
<pin id="75" dir="0" index="0" bw="4" slack="0"/>
<pin id="76" dir="0" index="1" bw="32" slack="0"/>
<pin id="77" dir="1" index="2" bw="32" slack="0"/>
</pin_list>
<bind>
<opcode="load(27) store(28) " fcode="store"/>
<opset="data/2 StgValue_31/2 StgValue_38/3 "/>
</bind>
</comp>

<comp id="80" class="1004" name="shift_reg_addr_1_gep_fu_80">
<pin_list>
<pin id="81" dir="0" index="0" bw="32" slack="0"/>
<pin id="82" dir="0" index="1" bw="1" slack="0"/>
<pin id="83" dir="0" index="2" bw="32" slack="0"/>
<pin id="84" dir="1" index="3" bw="4" slack="0"/>
</pin_list>
<bind>
<opcode="getelementptr(29) " fcode="getelementptr"/>
<opset="shift_reg_addr_1/3 "/>
</bind>
</comp>

<comp id="89" class="1004" name="c_addr_gep_fu_89">
<pin_list>
<pin id="90" dir="0" index="0" bw="32" slack="0"/>
<pin id="91" dir="0" index="1" bw="1" slack="0"/>
<pin id="92" dir="0" index="2" bw="32" slack="0"/>
<pin id="93" dir="1" index="3" bw="4" slack="0"/>
</pin_list>
<bind>
<opcode="getelementptr(29) " fcode="getelementptr"/>
<opset="c_addr/3 "/>
</bind>
</comp>

<comp id="96" class="1004" name="grp_access_fu_96">
<pin_list>
<pin id="97" dir="0" index="0" bw="4" slack="0"/>
<pin id="98" dir="0" index="1" bw="32" slack="2147483647"/>
<pin id="99" dir="1" index="2" bw="32" slack="1"/>
</pin_list>
<bind>
<opcode="load(27) " fcode="load"/>
<opset="c_load/3 "/>
</bind>
</comp>

<comp id="101" class="1005" name="acc_reg_101">
<pin_list>
<pin id="102" dir="0" index="0" bw="32" slack="1"/>
<pin id="103" dir="1" index="1" bw="32" slack="1"/>
</pin_list>
<bind>
<opset="acc (phireg) "/>
</bind>
</comp>

<comp id="105" class="1004" name="acc_phi_fu_105">
<pin_list>
<pin id="106" dir="0" index="0" bw="1" slack="1"/>
<pin id="107" dir="0" index="1" bw="0" slack="2147483647"/>
<pin id="108" dir="0" index="2" bw="32" slack="1"/>
<pin id="109" dir="0" index="3" bw="0" slack="2147483647"/>
<pin id="110" dir="1" index="4" bw="32" slack="0"/>
</pin_list>
<bind>
<opcode="phi(47) " fcode="phi"/>
<opset="acc/2 "/>
</bind>
</comp>

<comp id="114" class="1005" name="i_reg_114">
<pin_list>
<pin id="115" dir="0" index="0" bw="5" slack="1"/>
<pin id="116" dir="1" index="1" bw="5" slack="1"/>
</pin_list>
<bind>
<opset="i (phireg) "/>
</bind>
</comp>

<comp id="118" class="1004" name="i_phi_fu_118">
<pin_list>
<pin id="119" dir="0" index="0" bw="5" slack="1"/>
<pin id="120" dir="0" index="1" bw="0" slack="2147483647"/>
<pin id="121" dir="0" index="2" bw="5" slack="1"/>
<pin id="122" dir="0" index="3" bw="0" slack="2147483647"/>
<pin id="123" dir="1" index="4" bw="5" slack="0"/>
</pin_list>
<bind>
<opcode="phi(47) " fcode="phi"/>
<opset="i/2 "/>
</bind>
</comp>

<comp id="126" class="1005" name="data1_reg_126">
<pin_list>
<pin id="127" dir="0" index="0" bw="32" slack="1"/>
<pin id="128" dir="1" index="1" bw="32" slack="1"/>
</pin_list>
<bind>
<opset="data1 (phireg) "/>
</bind>
</comp>

<comp id="129" class="1004" name="data1_phi_fu_129">
<pin_list>
<pin id="130" dir="0" index="0" bw="32" slack="3"/>
<pin id="131" dir="0" index="1" bw="0" slack="2147483647"/>
<pin id="132" dir="0" index="2" bw="32" slack="1"/>
<pin id="133" dir="0" index="3" bw="0" slack="2147483647"/>
<pin id="134" dir="1" index="4" bw="32" slack="1"/>
</pin_list>
<bind>
<opcode="phi(47) " fcode="phi"/>
<opset="data1/4 "/>
</bind>
</comp>

<comp id="136" class="1004" name="grp_fu_136">
<pin_list>
<pin id="137" dir="0" index="0" bw="5" slack="0"/>
<pin id="138" dir="0" index="1" bw="1" slack="0"/>
<pin id="139" dir="1" index="2" bw="5" slack="0"/>
</pin_list>
<bind>
<opcode="add(8) " fcode="add"/>
<opset="tmp_2/2 i_1/3 "/>
</bind>
</comp>

<comp id="143" class="1004" name="i_cast_fu_143">
<pin_list>
<pin id="144" dir="0" index="0" bw="5" slack="0"/>
<pin id="145" dir="1" index="1" bw="32" slack="1"/>
</pin_list>
<bind>
<opcode="sext(35) " fcode="sext"/>
<opset="i_cast/2 "/>
</bind>
</comp>

<comp id="147" class="1004" name="tmp_fu_147">
<pin_list>
<pin id="148" dir="0" index="0" bw="1" slack="0"/>
<pin id="149" dir="0" index="1" bw="5" slack="0"/>
<pin id="150" dir="0" index="2" bw="4" slack="0"/>
<pin id="151" dir="1" index="3" bw="1" slack="2147483647"/>
</pin_list>
<bind>
<opcode="bitselect(1000) " fcode="bitselect"/>
<opset="tmp/2 "/>
</bind>
</comp>

<comp id="155" class="1004" name="tmp_1_fu_155">
<pin_list>
<pin id="156" dir="0" index="0" bw="5" slack="0"/>
<pin id="157" dir="0" index="1" bw="5" slack="0"/>
<pin id="158" dir="1" index="2" bw="1" slack="1"/>
</pin_list>
<bind>
<opcode="icmp(45) " fcode="icmp"/>
<opset="tmp_1/2 "/>
</bind>
</comp>

<comp id="161" class="1004" name="tmp_3_fu_161">
<pin_list>
<pin id="162" dir="0" index="0" bw="5" slack="0"/>
<pin id="163" dir="1" index="1" bw="64" slack="0"/>
</pin_list>
<bind>
<opcode="zext(34) " fcode="zext"/>
<opset="tmp_3/2 "/>
</bind>
</comp>

<comp id="166" class="1004" name="tmp_4_fu_166">
<pin_list>
<pin id="167" dir="0" index="0" bw="5" slack="1"/>
<pin id="168" dir="1" index="1" bw="64" slack="0"/>
</pin_list>
<bind>
<opcode="zext(34) " fcode="zext"/>
<opset="tmp_4/3 "/>
</bind>
</comp>

<comp id="170" class="1004" name="tmp_5_fu_170">
<pin_list>
<pin id="171" dir="0" index="0" bw="5" slack="1"/>
<pin id="172" dir="1" index="1" bw="64" slack="0"/>
</pin_list>
<bind>
<opcode="zext(34) " fcode="zext"/>
<opset="tmp_5/3 "/>
</bind>
</comp>

<comp id="174" class="1004" name="grp_fu_174">
<pin_list>
<pin id="175" dir="0" index="0" bw="32" slack="1"/>
<pin id="176" dir="0" index="1" bw="32" slack="1"/>
<pin id="177" dir="1" index="2" bw="32" slack="1"/>
</pin_list>
<bind>
<opcode="mul(12) " fcode="mul"/>
<opset="tmp_6/5 "/>
</bind>
</comp>

<comp id="179" class="1004" name="acc_1_fu_179">
<pin_list>
<pin id="180" dir="0" index="0" bw="32" slack="1"/>
<pin id="181" dir="0" index="1" bw="32" slack="6"/>
<pin id="182" dir="1" index="2" bw="32" slack="1"/>
</pin_list>
<bind>
<opcode="add(8) " fcode="add"/>
<opset="acc_1/8 "/>
</bind>
</comp>

<comp id="184" class="1005" name="x_read_reg_184">
<pin_list>
<pin id="185" dir="0" index="0" bw="32" slack="1"/>
<pin id="186" dir="1" index="1" bw="32" slack="1"/>
</pin_list>
<bind>
<opset="x_read "/>
</bind>
</comp>

<comp id="190" class="1005" name="i_cast_reg_190">
<pin_list>
<pin id="191" dir="0" index="0" bw="32" slack="1"/>
<pin id="192" dir="1" index="1" bw="32" slack="1"/>
</pin_list>
<bind>
<opset="i_cast "/>
</bind>
</comp>

<comp id="199" class="1005" name="tmp_1_reg_199">
<pin_list>
<pin id="200" dir="0" index="0" bw="1" slack="1"/>
<pin id="201" dir="1" index="1" bw="1" slack="2147483647"/>
</pin_list>
<bind>
<opset="tmp_1 "/>
</bind>
</comp>

<comp id="203" class="1005" name="shift_reg_addr_reg_203">
<pin_list>
<pin id="204" dir="0" index="0" bw="4" slack="1"/>
<pin id="205" dir="1" index="1" bw="4" slack="1"/>
</pin_list>
<bind>
<opset="shift_reg_addr "/>
</bind>
</comp>

<comp id="208" class="1005" name="data_reg_208">
<pin_list>
<pin id="209" dir="0" index="0" bw="32" slack="1"/>
<pin id="210" dir="1" index="1" bw="32" slack="1"/>
</pin_list>
<bind>
<opset="data "/>
</bind>
</comp>

<comp id="213" class="1005" name="c_addr_reg_213">
<pin_list>
<pin id="214" dir="0" index="0" bw="4" slack="1"/>
<pin id="215" dir="1" index="1" bw="4" slack="1"/>
</pin_list>
<bind>
<opset="c_addr "/>
</bind>
</comp>

<comp id="218" class="1005" name="i_1_reg_218">
<pin_list>
<pin id="219" dir="0" index="0" bw="5" slack="1"/>
<pin id="220" dir="1" index="1" bw="5" slack="1"/>
</pin_list>
<bind>
<opset="i_1 "/>
</bind>
</comp>

<comp id="223" class="1005" name="c_load_reg_223">
<pin_list>
<pin id="224" dir="0" index="0" bw="32" slack="1"/>
<pin id="225" dir="1" index="1" bw="32" slack="1"/>
</pin_list>
<bind>
<opset="c_load "/>
</bind>
</comp>

<comp id="228" class="1005" name="tmp_6_reg_228">
<pin_list>
<pin id="229" dir="0" index="0" bw="32" slack="1"/>
<pin id="230" dir="1" index="1" bw="32" slack="1"/>
</pin_list>
<bind>
<opset="tmp_6 "/>
</bind>
</comp>

<comp id="233" class="1005" name="acc_1_reg_233">
<pin_list>
<pin id="234" dir="0" index="0" bw="32" slack="1"/>
<pin id="235" dir="1" index="1" bw="32" slack="1"/>
</pin_list>
<bind>
<opset="acc_1 "/>
</bind>
</comp>

</comp_list>

<net_list>
<net id="58"><net_src comp="14" pin="0"/><net_sink comp="54" pin=0"/></net>

<net id="59"><net_src comp="4" pin="0"/><net_sink comp="54" pin=1"/></net>

<net id="65"><net_src comp="52" pin="0"/><net_sink comp="60" pin=0"/></net>

<net id="66"><net_src comp="0" pin="0"/><net_sink comp="60" pin=1"/></net>

<net id="72"><net_src comp="6" pin="0"/><net_sink comp="67" pin=0"/></net>

<net id="73"><net_src comp="48" pin="0"/><net_sink comp="67" pin=1"/></net>

<net id="78"><net_src comp="67" pin="3"/><net_sink comp="74" pin=0"/></net>

<net id="79"><net_src comp="50" pin="0"/><net_sink comp="74" pin=0"/></net>

<net id="85"><net_src comp="6" pin="0"/><net_sink comp="80" pin=0"/></net>

<net id="86"><net_src comp="48" pin="0"/><net_sink comp="80" pin=1"/></net>

<net id="87"><net_src comp="74" pin="2"/><net_sink comp="74" pin=1"/></net>

<net id="88"><net_src comp="80" pin="3"/><net_sink comp="74" pin=0"/></net>

<net id="94"><net_src comp="2" pin="0"/><net_sink comp="89" pin=0"/></net>

<net id="95"><net_src comp="48" pin="0"/><net_sink comp="89" pin=1"/></net>

<net id="100"><net_src comp="89" pin="3"/><net_sink comp="96" pin=0"/></net>

<net id="104"><net_src comp="20" pin="0"/><net_sink comp="101" pin=0"/></net>

<net id="111"><net_src comp="101" pin="1"/><net_sink comp="105" pin=0"/></net>

<net id="112"><net_src comp="105" pin="4"/><net_sink comp="60" pin=2"/></net>

<net id="113"><net_src comp="105" pin="4"/><net_sink comp="101" pin=0"/></net>

<net id="117"><net_src comp="30" pin="0"/><net_sink comp="114" pin=0"/></net>

<net id="124"><net_src comp="114" pin="1"/><net_sink comp="118" pin=0"/></net>

<net id="125"><net_src comp="118" pin="4"/><net_sink comp="114" pin=0"/></net>

<net id="135"><net_src comp="129" pin="4"/><net_sink comp="126" pin=0"/></net>

<net id="140"><net_src comp="118" pin="4"/><net_sink comp="136" pin=0"/></net>

<net id="141"><net_src comp="46" pin="0"/><net_sink comp="136" pin=1"/></net>

<net id="142"><net_src comp="114" pin="1"/><net_sink comp="136" pin=0"/></net>

<net id="146"><net_src comp="118" pin="4"/><net_sink comp="143" pin=0"/></net>

<net id="152"><net_src comp="32" pin="0"/><net_sink comp="147" pin=0"/></net>

<net id="153"><net_src comp="118" pin="4"/><net_sink comp="147" pin=1"/></net>

<net id="154"><net_src comp="34" pin="0"/><net_sink comp="147" pin=2"/></net>

<net id="159"><net_src comp="118" pin="4"/><net_sink comp="155" pin=0"/></net>

<net id="160"><net_src comp="44" pin="0"/><net_sink comp="155" pin=1"/></net>

<net id="164"><net_src comp="136" pin="2"/><net_sink comp="161" pin=0"/></net>

<net id="165"><net_src comp="161" pin="1"/><net_sink comp="67" pin=2"/></net>

<net id="169"><net_src comp="166" pin="1"/><net_sink comp="80" pin=2"/></net>

<net id="173"><net_src comp="170" pin="1"/><net_sink comp="89" pin=2"/></net>

<net id="178"><net_src comp="126" pin="1"/><net_sink comp="174" pin=1"/></net>

<net id="183"><net_src comp="101" pin="1"/><net_sink comp="179" pin=1"/></net>

<net id="187"><net_src comp="54" pin="2"/><net_sink comp="184" pin=0"/></net>

<net id="188"><net_src comp="184" pin="1"/><net_sink comp="74" pin=1"/></net>

<net id="189"><net_src comp="184" pin="1"/><net_sink comp="129" pin=0"/></net>

<net id="193"><net_src comp="143" pin="1"/><net_sink comp="190" pin=0"/></net>

<net id="194"><net_src comp="190" pin="1"/><net_sink comp="166" pin=0"/></net>

<net id="195"><net_src comp="190" pin="1"/><net_sink comp="170" pin=0"/></net>

<net id="202"><net_src comp="155" pin="2"/><net_sink comp="199" pin=0"/></net>

<net id="206"><net_src comp="67" pin="3"/><net_sink comp="203" pin=0"/></net>

<net id="207"><net_src comp="203" pin="1"/><net_sink comp="74" pin=0"/></net>

<net id="211"><net_src comp="74" pin="2"/><net_sink comp="208" pin=0"/></net>

<net id="212"><net_src comp="208" pin="1"/><net_sink comp="129" pin=2"/></net>

<net id="216"><net_src comp="89" pin="3"/><net_sink comp="213" pin=0"/></net>

<net id="217"><net_src comp="213" pin="1"/><net_sink comp="96" pin=0"/></net>

<net id="221"><net_src comp="136" pin="2"/><net_sink comp="218" pin=0"/></net>

<net id="222"><net_src comp="218" pin="1"/><net_sink comp="118" pin=2"/></net>

<net id="226"><net_src comp="96" pin="2"/><net_sink comp="223" pin=0"/></net>

<net id="227"><net_src comp="223" pin="1"/><net_sink comp="174" pin=0"/></net>

<net id="231"><net_src comp="174" pin="2"/><net_sink comp="228" pin=0"/></net>

<net id="232"><net_src comp="228" pin="1"/><net_sink comp="179" pin=0"/></net>

<net id="236"><net_src comp="179" pin="2"/><net_sink comp="233" pin=0"/></net>

<net id="237"><net_src comp="233" pin="1"/><net_sink comp="105" pin=2"/></net>

</net_list>

</model> 
---------------- Datapath Model END ------------------

* FSMD analyzer results:
  - Output states:
	Port: y | {2 }
	Port: shift_reg | {2 3 }
 - Input state : 
	Port: fir : c | {3 4 }
	Port: fir : x | {1 }
	Port: fir : shift_reg | {2 3 }
  - Chain level:
	State 1
	State 2
		i_cast : 1
		tmp : 1
		StgValue_23 : 2
		tmp_1 : 1
		StgValue_26 : 2
		tmp_2 : 1
		tmp_3 : 2
		shift_reg_addr : 3
		data : 4
		StgValue_33 : 1
	State 3
		shift_reg_addr_1 : 1
		StgValue_38 : 2
		c_addr : 1
		c_load : 2
	State 4
	State 5
	State 6
	State 7
	State 8


============================================================
+ Verbose Summary: Datapath Resource usage 
============================================================

* Functional unit list:
|----------|-------------------------|---------|---------|---------|
| Operation|     Functional Unit     |  DSP48E |    FF   |   LUT   |
|----------|-------------------------|---------|---------|---------|
|    add   |        grp_fu_136       |    0    |    0    |    5    |
|          |       acc_1_fu_179      |    0    |    0    |    32   |
|----------|-------------------------|---------|---------|---------|
|    mul   |        grp_fu_174       |    4    |    0    |    0    |
|----------|-------------------------|---------|---------|---------|
|   icmp   |       tmp_1_fu_155      |    0    |    0    |    2    |
|----------|-------------------------|---------|---------|---------|
|   read   |    x_read_read_fu_54    |    0    |    0    |    0    |
|----------|-------------------------|---------|---------|---------|
|   write  | StgValue_33_write_fu_60 |    0    |    0    |    0    |
|----------|-------------------------|---------|---------|---------|
|   sext   |      i_cast_fu_143      |    0    |    0    |    0    |
|----------|-------------------------|---------|---------|---------|
| bitselect|        tmp_fu_147       |    0    |    0    |    0    |
|----------|-------------------------|---------|---------|---------|
|          |       tmp_3_fu_161      |    0    |    0    |    0    |
|   zext   |       tmp_4_fu_166      |    0    |    0    |    0    |
|          |       tmp_5_fu_170      |    0    |    0    |    0    |
|----------|-------------------------|---------|---------|---------|
|   Total  |                         |    4    |    0    |    39   |
|----------|-------------------------|---------|---------|---------|

Memories:
+---------+--------+--------+--------+
|         |  BRAM  |   FF   |   LUT  |
+---------+--------+--------+--------+
|shift_reg|    0   |   64   |    6   |
+---------+--------+--------+--------+
|  Total  |    0   |   64   |    6   |
+---------+--------+--------+--------+

* Register list:
+----------------------+--------+
|                      |   FF   |
+----------------------+--------+
|     acc_1_reg_233    |   32   |
|      acc_reg_101     |   32   |
|    c_addr_reg_213    |    4   |
|    c_load_reg_223    |   32   |
|     data1_reg_126    |   32   |
|     data_reg_208     |   32   |
|      i_1_reg_218     |    5   |
|    i_cast_reg_190    |   32   |
|       i_reg_114      |    5   |
|shift_reg_addr_reg_203|    4   |
|     tmp_1_reg_199    |    1   |
|     tmp_6_reg_228    |   32   |
|    x_read_reg_184    |   32   |
+----------------------+--------+
|         Total        |   275  |
+----------------------+--------+

* Multiplexer (MUX) list: 
|------------------|------|------|------|--------||---------||---------|
|       Comp       |  Pin | Size |  BW  | S x BW ||  Delay  ||   LUT   |
|------------------|------|------|------|--------||---------||---------|
| grp_access_fu_74 |  p0  |   4  |   4  |   16   ||    4    |
| grp_access_fu_74 |  p1  |   2  |  32  |   64   ||    32   |
| grp_access_fu_96 |  p0  |   2  |   4  |    8   ||    4    |
|    acc_reg_101   |  p0  |   2  |  32  |   64   ||    32   |
|     i_reg_114    |  p0  |   2  |   5  |   10   ||    5    |
|    grp_fu_136    |  p0  |   2  |   5  |   10   ||    5    |
|------------------|------|------|------|--------||---------||---------|
|       Total      |      |      |      |   172  ||  5.352  ||    82   |
|------------------|------|------|------|--------||---------||---------|



* Summary:
+-----------+--------+--------+--------+--------+--------+
|           |  BRAM  | DSP48E |  Delay |   FF   |   LUT  |
+-----------+--------+--------+--------+--------+--------+
|  Function |    -   |    4   |    -   |    0   |   39   |
|   Memory  |    0   |    -   |    -   |   64   |    6   |
|Multiplexer|    -   |    -   |    5   |    -   |   82   |
|  Register |    -   |    -   |    -   |   275  |    -   |
+-----------+--------+--------+--------+--------+--------+
|   Total   |    0   |    4   |    5   |   339  |   127  |
+-----------+--------+--------+--------+--------+--------+
